{
  "name": "React Scorm engine",
  "structure": [
    {"section": "section1", "pages": [
      {"id": "s01p01", "title": "sectopn1 page1"},
      {"id": "s01p02", "title": "sectopn1 page2"}
    ]},
    {"section": "section2", "pages": [
      {"id": "s02p01", "title": "sectopn2 page1"}
    ]}
  ],
  "devMode": true,
  "showHeader": true,
  "showFooter": true,
  "showSectionInMenu": true,
  "unlockAllPages": false,
  "customizeUnlockPage": false
}